{
  "project_info": {
    "project_number": "570089204232",
    "project_id": "firebase-mowy"
  },
  "client": [
    {
      "client_info": {
        "mobilesdk_app_id": "1:570089204232:android:e0f472a9b53f4de4",
        "android_client_info": {
          "package_name": "com.simply.mowy"
        }
      },
      "oauth_client": [],
      "api_key": [
        {
          "current_key": "AIzaSyBC8ZwEBzhyaEoXKC0PY-IIQTLcXNPH3lE"
        }
      ],
      "services": {
        "analytics_service": {
          "status": 2,
          "analytics_property": {
            "tracking_id": "UA-93003483-1"
          }
        },
        "appinvite_service": {
          "status": 1,
          "other_platform_oauth_client": []
        },
        "ads_service": {
          "status": 1
        }
      }
    }
  ],
  "configuration_version": "1"
}